{
    "baseUrl": "https://wave-trial.getbynder.com",
    "username": "CYPRESS_USERNAME",
    "password": "CYPRESS_PASSWORD",
    "invalidUsername": "invalid@gmail.com",
    "invalidPassword": "invalidPassword",
    "reporter": "mochawesome",
    "reporterOptions": {
        "reportDir": "cypress/report/mochawesome-report",
        "charts": true,
        "overwrite": true,
        "html": true,
        "json": false,
        "timestamp": "mmddyyyy_HHMMss"
    },
    "chromeWebSecurity": false


}

